<?xml version="1.0" encoding="utf-8"?>
<!-- Generator: Adobe Illustrator 16.0.0, SVG Export Plug-In . SVG Version: 6.00 Build 0)  -->
<svg version="1.2" baseProfile="tiny" xmlns="http://www.w3.org/2000/svg" xmlns:xlink="http://www.w3.org/1999/xlink" x="0px"
	 y="0px" width="120.72px" height="70.08px" viewBox="0 0 120.72 70.08" xml:space="preserve">
<g id="O_2_">
	<g>
		<rect x="94.908" y="2.325" fill="none" width="255.228" height="79.485"/>
		<path fill="#E45300" d="M118.785,17.9c-0.228,1.31-0.743,2.497-1.546,3.562c-0.803,1.064-1.791,1.916-2.963,2.553
			c-1.173,0.638-2.414,0.957-3.724,0.957h-7.908c-1.298,0-2.432-0.319-3.399-0.957s-1.685-1.486-2.151-2.545
			c-0.319-0.751-0.479-1.56-0.479-2.425c0-0.376,0.028-0.757,0.085-1.145l1.726-10.709c0.228-1.31,0.743-2.497,1.546-3.562
			c0.803-1.064,1.79-1.916,2.963-2.553s2.414-0.957,3.724-0.957h7.908c1.298,0,2.431,0.319,3.399,0.957
			c0.967,0.638,1.685,1.486,2.151,2.545c0.319,0.751,0.479,1.56,0.479,2.425c0,0.376-0.028,0.757-0.085,1.145L118.785,17.9z
			 M114.396,7.191c0.012-0.045,0.018-0.091,0.018-0.137c0-0.205-0.068-0.387-0.205-0.546c-0.16-0.182-0.37-0.273-0.632-0.273h-7.908
			c-0.263,0-0.502,0.094-0.718,0.282c-0.217,0.188-0.353,0.413-0.41,0.675L102.815,17.9c-0.012,0.046-0.018,0.091-0.018,0.137
			c0,0.205,0.068,0.387,0.205,0.546c0.159,0.183,0.37,0.273,0.632,0.273h7.908c0.262,0,0.501-0.094,0.718-0.282
			c0.216-0.188,0.353-0.413,0.41-0.675L114.396,7.191z"/>
	</g>
</g>
<g id="Shape_1_1_">
	<g id="Shape_1">
		<path fill="#E45300" d="M95.428,16.485c0,0-0.349-1.268,0.135-3.738c-1.314,1.42-4.603,5.732-4.603,5.732
			c-1.193,0.661-7.13,0.855-8.16,0.48s-5.024-4.107-5.52-5.28c-0.496-1.173-0.627-4.362,1.92-5.28
			c0.962-0.261,4.014-0.614,5.279-0.96s6.131-1.641,6.503-1.826c-0.095-0.139-2.698-3.436-2.652-3.517s-0.106-0.47-0.106-0.47
			S81.779-1.742,72.211,3.07c-1.356,0.972-2.012,1.79-4.809,3.419c-0.52,0.336-0.175,1.578-0.175,1.578s-6.112,4.595,0.112,14.633
			c0.247,0.487,0.204,1.307,0.864,1.475c0.659,0.167,24.466-0.022,25.201-0.167c0.734-0.145,0.7,0,0.934-0.573
			c0.232-0.573,1.435-3.824,1.441-4.795C95.789,17.669,95.428,16.485,95.428,16.485z"/>
	</g>
</g>
<g id="T">
	<g>
		<rect x="66.107" y="25.605" fill="none" width="255.228" height="79.485"/>
		<path fill="#009896" d="M72.997,59.706l4.125-25.71h-5.109c-1.156,0-2.07-0.398-2.742-1.195c-0.547-0.656-0.82-1.43-0.82-2.32
			c0-0.219,0.016-0.445,0.047-0.68l0.656-4.195h22.852c1.156,0,2.07,0.406,2.742,1.219c0.547,0.641,0.82,1.406,0.82,2.297
			c0,0.219-0.016,0.445-0.047,0.68l-0.68,4.195h-9.305L82.067,55.51c-0.219,1.188-0.797,2.184-1.734,2.988s-1.984,1.207-3.141,1.207
			H72.997z"/>
	</g>
</g>
<g id="O_1_">
	<g>
		<rect x="2.027" y="35.205" fill="none" width="255.228" height="79.485"/>
		<path fill="#009896" d="M70.511,59.602c-0.313,1.797-1.02,3.426-2.121,4.887s-2.457,2.629-4.066,3.504s-3.313,1.313-5.109,1.313
			H48.362c-1.781,0-3.336-0.438-4.664-1.313s-2.313-2.039-2.953-3.492c-0.438-1.031-0.656-2.141-0.656-3.328
			c0-0.516,0.039-1.039,0.117-1.57l2.367-14.695c0.313-1.797,1.02-3.426,2.121-4.887s2.457-2.629,4.066-3.504
			s3.313-1.313,5.109-1.313h10.852c1.781,0,3.336,0.438,4.664,1.313s2.313,2.039,2.953,3.492c0.438,1.031,0.656,2.141,0.656,3.328
			c0,0.516-0.039,1.039-0.117,1.57L70.511,59.602z M64.487,44.907c0.016-0.063,0.023-0.125,0.023-0.188
			c0-0.281-0.094-0.531-0.281-0.75c-0.219-0.25-0.508-0.375-0.867-0.375H52.511c-0.359,0-0.688,0.129-0.984,0.387
			s-0.484,0.566-0.563,0.926l-2.367,14.695c-0.016,0.063-0.023,0.125-0.023,0.188c0,0.281,0.094,0.531,0.281,0.75
			c0.219,0.25,0.508,0.375,0.867,0.375h10.852c0.359,0,0.688-0.129,0.984-0.387s0.484-0.566,0.563-0.926L64.487,44.907z"/>
	</g>
</g>
<g id="O">
	<g>
		<rect x="45.948" y="35.205" fill="none" width="255.228" height="79.485"/>
		<path fill="#009896" d="M114.431,59.602c-0.313,1.797-1.02,3.426-2.121,4.887s-2.457,2.629-4.066,3.504s-3.313,1.313-5.109,1.313
			H92.282c-1.781,0-3.336-0.438-4.664-1.313s-2.313-2.039-2.953-3.492c-0.438-1.031-0.656-2.141-0.656-3.328
			c0-0.516,0.039-1.039,0.117-1.57l2.367-14.695c0.313-1.797,1.02-3.426,2.121-4.887s2.457-2.629,4.066-3.504
			s3.313-1.313,5.109-1.313h10.852c1.781,0,3.336,0.438,4.664,1.313s2.313,2.039,2.953,3.492c0.438,1.031,0.656,2.141,0.656,3.328
			c0,0.516-0.039,1.039-0.117,1.57L114.431,59.602z M108.407,44.907c0.016-0.063,0.023-0.125,0.023-0.188
			c0-0.281-0.094-0.531-0.281-0.75c-0.219-0.25-0.508-0.375-0.867-0.375H96.431c-0.359,0-0.688,0.129-0.984,0.387
			s-0.484,0.566-0.563,0.926l-2.367,14.695c-0.016,0.063-0.023,0.125-0.023,0.188c0,0.281,0.094,0.531,0.281,0.75
			c0.219,0.25,0.508,0.375,0.867,0.375h10.852c0.359,0,0.688-0.129,0.984-0.387s0.484-0.566,0.563-0.926L108.407,44.907z"/>
	</g>
</g>
<g id="M">
	<g>
		<rect x="0.107" y="35.205" fill="none" width="255.228" height="79.485"/>
		<path fill="#009896" d="M2.45,69.305l4.805-29.906c0.219-1.188,0.797-2.184,1.734-2.988s1.984-1.207,3.141-1.207h1.828
			c1.063,0,1.871,0.266,2.426,0.797s1.035,1.211,1.441,2.039l4.758,9.164l7.898-9.328c0.734-0.891,1.453-1.559,2.156-2.004
			s1.523-0.668,2.461-0.668h1.828c1.156,0,2.07,0.406,2.742,1.219c0.547,0.641,0.82,1.406,0.82,2.297
			c0,0.219-0.016,0.445-0.047,0.68l-4.805,29.906h-4.195c-1.156,0-2.07-0.398-2.742-1.195c-0.547-0.656-0.82-1.43-0.82-2.32
			c0-0.219,0.016-0.445,0.047-0.68l2.414-15.07l-5.789,6.844c-1.094,1.234-2.344,1.859-3.75,1.875h-0.094
			c-1.375,0-2.422-0.609-3.141-1.828l-3.633-6.891l-2.414,15.07c-0.219,1.188-0.797,2.184-1.734,2.988s-1.984,1.207-3.141,1.207
			H2.45z"/>
	</g>
</g>
</svg>
